28,APR,2016,23272650,6354
8,APR,2016,23098145,7203
3,APR,2016,23064807,12874
5,FEB,2016,22448163,7997
31,JAN,2016,22399602,19731
12,JAN,2016,22165829,8315
6,NOV,2015,21313027,7285
23,SEP,2015,20918251,7552
14,AUG,2015,20506966,10234
12,JUL,2015,20140414,13072
